r - Expand rows by date range using start and end date - Stack Overflow
…
df <- structure(list(idnum = c(17L, 17L, 17L), start = structure(c(8401, 
8401, 8401), class = "Date"), end = structure(c(8765, 8765, 8765
), class = "Date")), class = "data.frame", .Names = c("idnum", 
"start", "end"), row.names = c(NA, -3L))

Answer and output

library(tidyverse)
df %>%
  nest(start, end) %>%
  mutate(data = map(data, ~seq(unique(.x$start), unique(.x$end), 1))) %>%
  unnest(data)

# # A tibble: 365 x 2
   # idnum       data
   # <int>     <date>
 # 1    17 1993-01-01
 # 2    17 1993-01-02
 # 3    17 1993-01-03
 # 4    17 1993-01-04
 # 5    17 1993-01-05
 # 6    17 1993-01-06
 # 7    17 1993-01-07
 # 8    17 1993-01-08
 # 9    17 1993-01-09
# 10    17 1993-01-10
# # ... with 355 more rows
…
